%YAML 1.1
%TAG !u! tag:unity3d.com,2011:
--- !u!21 &2100000
Material:
  serializedVersion: 6
  m_ObjectHideFlags: 0
  m_PrefabParentObject: {fileID: 0}
  m_PrefabInternal: {fileID: 0}
  m_Name: CodeExample5
  m_Shader: {fileID: 4800000, guid: 54801e211c61e07409e5f0253345511b, type: 3}
  m_ShaderKeywords: DISTORTION_OFF NOISE_OFF RIM_OFF SCANLINES_OFF
  m_LightmapFlags: 5
  m_EnableInstancingVariants: 0
  m_DoubleSidedGI: 0
  m_CustomRenderQueue: -1
  stringTagMap: {}
  disabledShaderPasses: []
  m_SavedProperties:
    serializedVersion: 3
    m_TexEnvs:
    - _DistortionTex:
        m_Texture: {fileID: 0}
        m_Scale: {x: 1, y: 1}
        m_Offset: {x: 0, y: 0}
    - _MainTex:
        m_Texture: {fileID: 2800000, guid: f3bca55c815f9424aa0c8eed0b6095f8, type: 3}
        m_Scale: {x: 1, y: 1}
        m_Offset: {x: 0, y: 0}
    m_Floats:
    - _RimStrength: 0.014394373
    - _ScanLineDistance: 0.2
    - _Strength: 1
    m_Colors:
    - _Color: {r: 1, g: 1, b: 1, a: 1}
    - _DistortionSettings: {r: 0, g: 0, b: 0, a: 0}
    - _NoiseColor: {r: 1, g: 1, b: 1, a: 1}
    - _NoiseFrequency: {r: 0, g: 0, b: 0, a: 0}
    - _NoiseSettings: {r: 0.1, g: 0.1, b: 0.1, a: 0}
    - _ScanLineColor: {r: 1, g: 1, b: 1, a: 1}
    - _ScanLineSettings: {r: 1, g: 0.2, b: 0, a: 0}
