%YAML 1.1
%TAG !u! tag:unity3d.com,2011:
--- !u!21 &2100000
Material:
  serializedVersion: 6
  m_ObjectHideFlags: 0
  m_PrefabParentObject: {fileID: 0}
  m_PrefabInternal: {fileID: 0}
  m_Name: sf_30
  m_Shader: {fileID: 13, guid: 0000000000000000f000000000000000, type: 0}
  m_ShaderKeywords: 
  m_LightmapFlags: 4
  m_EnableInstancingVariants: 0
  m_DoubleSidedGI: 0
  m_CustomRenderQueue: -1
  stringTagMap: {}
  disabledShaderPasses: []
  m_SavedProperties:
    serializedVersion: 3
    m_TexEnvs:
    - _BumpMap:
        m_Texture: {fileID: 2800000, guid: 27515bf9d0e41fe4c9fc6e29d4edb14a, type: 3}
        m_Scale: {x: 1, y: 1}
        m_Offset: {x: 0, y: 0}
    - _Cube:
        m_Texture: {fileID: 8900000, guid: 82578c95f771f7646919e0f00d659ab8, type: 3}
        m_Scale: {x: 1, y: 1}
        m_Offset: {x: 0, y: 0}
    - _Illum:
        m_Texture: {fileID: 2800000, guid: 26cef599c0d4d7e4ea09105acc81e8c3, type: 3}
        m_Scale: {x: 1, y: 1}
        m_Offset: {x: 0, y: 0}
    - _MainTex:
        m_Texture: {fileID: 2800000, guid: 7b7deb390c5473a4cb0b4c4e0c2609e8, type: 3}
        m_Scale: {x: 1, y: 1}
        m_Offset: {x: 0, y: 0}
    m_Floats:
    - _EmissionLM: 0
    - _Shininess: 0.43691117
    m_Colors:
    - _Color: {r: 1, g: 1, b: 1, a: 1}
    - _ReflectColor: {r: 0.03731346, g: 0.03731346, b: 0.03731346, a: 0.5019608}
    - _SpecColor: {r: 0.22388059, g: 0.22388059, b: 0.22388059, a: 1}
--- !u!1002 &2100001
EditorExtensionImpl:
  serializedVersion: 6
