%YAML 1.1
%TAG !u! tag:unity3d.com,2011:
--- !u!74 &7400000
AnimationClip:
  m_ObjectHideFlags: 0
  m_PrefabParentObject: {fileID: 0}
  m_PrefabInternal: {fileID: 0}
  m_Name: Particle_sparks
  serializedVersion: 6
  m_Legacy: 1
  m_Compressed: 0
  m_UseHighQualityCurve: 1
  m_RotationCurves: []
  m_CompressedRotationCurves: []
  m_EulerCurves: []
  m_PositionCurves: []
  m_ScaleCurves: []
  m_FloatCurves:
  - curve:
      serializedVersion: 2
      m_Curve: []
      m_PreInfinity: 2
      m_PostInfinity: 2
      m_RotationOrder: 4
    attribute: m_Enabled
    path: 
    classID: 88
    script: {fileID: 0}
  - curve:
      serializedVersion: 2
      m_Curve:
      - serializedVersion: 2
        time: 0
        value: 1
        inSlope: 0
        outSlope: Infinity
        tangentMode: 97
      - serializedVersion: 2
        time: 0.46666664
        value: 1
        inSlope: -14.999988
        outSlope: Infinity
        tangentMode: 97
      - serializedVersion: 2
        time: 0.5
        value: 0
        inSlope: -14.999988
        outSlope: Infinity
        tangentMode: 97
      - serializedVersion: 2
        time: 1.0666667
        value: 0
        inSlope: 30.000029
        outSlope: Infinity
        tangentMode: 97
      - serializedVersion: 2
        time: 1.0833334
        value: 1
        inSlope: 30.000029
        outSlope: Infinity
        tangentMode: 97
      - serializedVersion: 2
        time: 1.8666666
        value: 1
        inSlope: -14.9999075
        outSlope: Infinity
        tangentMode: 97
      - serializedVersion: 2
        time: 1.9000001
        value: 0
        inSlope: -29.999815
        outSlope: Infinity
        tangentMode: 97
      - serializedVersion: 2
        time: 2.1166666
        value: 0
        inSlope: 0
        outSlope: 0
        tangentMode: 7
      m_PreInfinity: 2
      m_PostInfinity: 2
      m_RotationOrder: 4
    attribute: m_Emit
    path: 
    classID: 88
    script: {fileID: 0}
  m_PPtrCurves: []
  m_SampleRate: 60
  m_WrapMode: 2
  m_Bounds:
    m_Center: {x: 0, y: 0, z: 0}
    m_Extent: {x: 0, y: 0, z: 0}
  m_ClipBindingConstant:
    genericBindings: []
    pptrCurveMapping: []
  m_AnimationClipSettings:
    serializedVersion: 2
    m_AdditiveReferencePoseClip: {fileID: 0}
    m_AdditiveReferencePoseTime: 0
    m_StartTime: 0
    m_StopTime: 1
    m_OrientationOffsetY: 0
    m_Level: 0
    m_CycleOffset: 0
    m_HasAdditiveReferencePose: 0
    m_LoopTime: 0
    m_LoopBlend: 0
    m_LoopBlendOrientation: 0
    m_LoopBlendPositionY: 0
    m_LoopBlendPositionXZ: 0
    m_KeepOriginalOrientation: 0
    m_KeepOriginalPositionY: 1
    m_KeepOriginalPositionXZ: 0
    m_HeightFromFeet: 0
    m_Mirror: 0
  m_EditorCurves:
  - curve:
      serializedVersion: 2
      m_Curve: []
      m_PreInfinity: 2
      m_PostInfinity: 2
      m_RotationOrder: 4
    attribute: m_Enabled
    path: 
    classID: 88
    script: {fileID: 0}
  - curve:
      serializedVersion: 2
      m_Curve:
      - serializedVersion: 2
        time: 0
        value: 1
        inSlope: 0
        outSlope: Infinity
        tangentMode: 97
      - serializedVersion: 2
        time: 0.46666664
        value: 1
        inSlope: -14.999988
        outSlope: Infinity
        tangentMode: 97
      - serializedVersion: 2
        time: 0.5
        value: 0
        inSlope: -14.999988
        outSlope: Infinity
        tangentMode: 97
      - serializedVersion: 2
        time: 1.0666667
        value: 0
        inSlope: 30.000029
        outSlope: Infinity
        tangentMode: 97
      - serializedVersion: 2
        time: 1.0833334
        value: 1
        inSlope: 30.000029
        outSlope: Infinity
        tangentMode: 97
      - serializedVersion: 2
        time: 1.8666666
        value: 1
        inSlope: -14.9999075
        outSlope: Infinity
        tangentMode: 97
      - serializedVersion: 2
        time: 1.9000001
        value: 0
        inSlope: -29.999815
        outSlope: Infinity
        tangentMode: 97
      - serializedVersion: 2
        time: 2.1166666
        value: 0
        inSlope: 0
        outSlope: 0
        tangentMode: 7
      m_PreInfinity: 2
      m_PostInfinity: 2
      m_RotationOrder: 4
    attribute: m_Emit
    path: 
    classID: 88
    script: {fileID: 0}
  m_EulerEditorCurves: []
  m_HasGenericRootTransform: 0
  m_HasMotionFloatCurves: 0
  m_GenerateMotionCurves: 0
  m_Events: []
--- !u!1002 &7400001
EditorExtensionImpl:
  serializedVersion: 6
