# 3ds Max Wavefront OBJ Exporter v0.97b - (c)2007 guruware
# 创建的文件:17.04.2018 15:04:32

mtllib 1.mtl

#
# object 1
#

v  -1.6419 -4.5313 -0.0000
v  -1.6691 -4.5897 -0.0000
v  -1.6707 -4.7291 -0.0000
v  -1.6193 -4.5102 -0.0000
v  -1.5915 -4.4944 -0.0000
v  -1.5289 -4.4688 -0.0000
v  -1.4713 -4.4358 -0.0000
v  -1.4984 -4.4544 -0.0000
v  -0.8489 -4.7291 -0.0000
v  -1.4291 -4.3833 -0.0000
v  -1.3931 -4.2890 -0.0000
v  -1.4026 -4.3221 -0.0000
v  -1.3857 -4.2563 -0.0000
v  -1.3891 -4.2725 -0.0000
v  -0.8299 -4.1817 -0.0000
v  -1.3472 -3.7902 -0.0000
v  -1.3566 -4.0585 -0.0000
v  -0.7954 -3.6358 -0.0000
v  -1.3385 -2.7743 -0.0000
v  -1.3669 -3.5203 -0.0000
v  -1.3737 -4.1910 -0.0000
v  -0.8375 -4.3641 -0.0000
v  -1.3860 -3.3893 -0.0000
v  -1.4410 -3.1948 -0.0000
v  -1.4482 -3.0118 -0.0000
v  -1.4686 -3.1286 -0.0000
v  -1.4043 -2.9591 -0.0000
v  -1.4254 -2.9859 -0.0000
v  -1.4269 -3.2279 -0.0000
v  -1.4673 -3.0381 -0.0000
v  -1.4770 -3.0662 -0.0000
v  -1.4766 -3.0966 -0.0000
v  -1.4153 -3.2603 -0.0000
v  -1.3716 -2.9016 -0.0000
v  -1.3980 -3.3251 -0.0000
v  -1.3760 -2.0552 -0.0000
v  -1.3880 -2.1180 -0.0000
v  -1.3904 -2.2459 -0.0000
v  -1.3749 -2.3733 -0.0000
v  -1.3575 -1.9927 -0.0000
v  -1.3343 -1.9298 -0.0000
v  -1.3533 -2.5049 -0.0000
v  -0.7429 -3.2754 -0.0000
v  -0.8042 -3.7265 -0.0000
v  -0.8217 -3.9994 -0.0000
v  -0.8113 -3.8173 -0.0000
v  -0.6370 -3.2515 0.0000
v  -0.5673 -3.0595 0.0000
v  -0.5827 -3.2553 0.0000
v  -0.5529 -3.2575 0.0000
v  -0.5541 -3.0815 0.0000
v  -0.5398 -3.2570 0.0000
v  -0.5408 -3.1069 0.0000
v  -0.5197 -3.1569 0.0000
v  -0.5286 -3.2547 0.0000
v  -0.6103 -3.2525 0.0000
v  -0.5178 -3.2487 0.0000
v  -0.5116 -3.1844 0.0000
v  -0.5074 -3.2096 0.0000
v  -0.5109 -3.2388 0.0000
v  -0.5076 -3.2255 0.0000
v  -0.4642 -2.5941 0.0000
v  -0.5008 -2.9541 0.0000
v  -0.4725 -2.4700 0.0000
v  -0.4763 -2.8979 0.0000
v  -0.4549 -2.7186 0.0000
v  -0.4628 -2.3498 0.0000
v  -0.4615 -2.8394 0.0000
v  -0.4457 -2.2916 0.0000
v  -0.3634 -1.8783 0.0000
v  -0.4555 -2.3204 0.0000
v  -1.2659 -1.7350 -0.0000
v  -0.3648 -1.9998 0.0000
v  -0.4211 -2.2351 0.0000
v  -0.3741 -2.1215 0.0000
v  -0.3644 -2.0617 0.0000
v  -0.3676 -2.0920 0.0000
v  -0.3673 -1.9379 0.0000
v  -1.2620 -1.6713 -0.0000
v  -1.3882 -0.9524 -0.0000
v  -1.3981 -0.8576 -0.0000
v  -1.3978 -0.9217 -0.0000
v  -1.3752 -0.9823 -0.0000
v  -1.5342 -0.4267 0.0000
v  -1.5550 -0.3093 0.0000
v  -1.5449 -0.3886 0.0000
v  -1.4794 -0.5318 0.0000
v  -1.5449 -0.1500 0.0000
v  -1.5191 -0.4635 0.0000
v  -1.4332 -0.5985 -0.0000
v  -1.5214 0.0079 0.0000
v  -1.5126 0.0878 0.0000
v  -1.3888 -0.6658 -0.0000
v  -1.3724 -1.4337 -0.0000
v  -1.3877 -1.2373 -0.0000
v  -1.3884 -1.3702 -0.0000
v  -1.3594 -1.4642 -0.0000
v  -1.3757 -1.1711 -0.0000
v  -1.3679 -1.1382 -0.0000
v  -1.3435 -1.4939 -0.0000
v  -1.3602 -1.1056 -0.0000
v  -1.3479 -0.7344 -0.0000
v  -1.3628 -1.0121 -0.0000
v  -1.5081 0.1663 0.0000
v  -1.5967 0.4822 0.0000
v  -1.5065 0.4822 0.0000
v  -1.5694 1.1047 0.0000
v  -1.5616 1.2589 0.0000
v  -1.5548 1.4127 0.0000
v  -1.3431 2.4498 0.0000
v  -1.5369 1.7182 0.0000
v  -1.4939 2.0198 0.0000
v  -1.5200 1.8695 0.0000
v  -1.4069 2.3114 0.0000
v  -1.2646 2.5806 0.0000
v  -1.5068 0.3245 0.0000
v  -1.3057 2.5162 0.0000
v  -1.0712 2.8155 -0.0000
v  -1.3085 -1.8656 -0.0000
v  -1.3084 -1.5522 -0.0000
v  -1.2777 -1.6106 -0.0000
v  -0.3566 -1.8498 0.0000
v  -1.2673 -1.6405 -0.0000
v  -1.3554 -1.0424 -0.0000
v  -0.2844 -1.7168 0.0000
v  -0.1961 -1.4278 0.0000
v  -0.3180 -1.7692 0.0000
v  -0.2264 -1.6090 0.0000
v  -0.2029 -1.4888 0.0000
v  -0.2515 -1.6629 0.0000
v  -0.1835 -1.3665 0.0000
v  -0.3463 -1.8223 0.0000
v  -0.2111 -1.5504 0.0000
v  -0.0581 -0.7360 0.0000
v  -0.7585 3.4353 -0.0000
v  -1.0407 3.4353 -0.0000
v  -0.5596 4.5081 0.0000
v  -0.7295 3.9918 -0.0000
v  -0.7435 3.8819 -0.0000
v  -0.6648 4.3163 0.0000
v  -0.7134 4.1016 -0.0000
v  -0.6213 4.4166 0.0000
v  -0.1972 4.7205 -0.0000
v  -0.0924 4.7291 -0.0000
v  -0.3483 4.6742 0.0000
v  -0.3958 4.6491 0.0000
v  -0.2991 4.6944 0.0000
v  -0.1583 -1.3145 0.0000
v  0.6085 -3.2575 0.0000
v  0.6058 -3.1974 0.0000
v  0.6035 -3.2395 0.0000
v  0.6190 -3.2731 0.0000
v  0.6156 -3.1509 0.0000
v  0.5171 -2.6340 0.0000
v  0.5341 -2.8966 0.0000
v  0.5804 -2.9764 0.0000
v  0.6536 -3.2968 0.0000
v  0.6222 -3.1038 0.0000
v  0.7505 -3.3190 0.0000
v  0.6174 -3.0596 0.0000
v  0.5308 -2.4983 0.0000
v  0.8227 -4.0216 0.0000
v  1.3480 -3.7618 -0.0000
v  0.8132 -3.8450 0.0000
v  0.8380 -4.3752 0.0000
v  1.3547 -4.0375 -0.0000
v  0.8306 -4.1983 0.0000
v  0.8068 -3.7568 0.0000
v  0.7988 -3.6688 0.0000
v  1.3537 -2.8523 -0.0000
v  1.3349 -2.7181 -0.0000
v  1.2780 -1.7829 0.0000
v  0.5299 -2.4538 0.0000
v  0.5176 -2.8555 0.0000
v  0.5068 -2.7239 0.0000
v  0.5085 -2.8128 0.0000
v  0.3459 -1.8582 0.0000
v  0.3079 -1.6827 0.0000
v  0.3246 -1.7712 0.0000
v  0.4048 -2.0262 0.0000
v  1.2890 -0.6399 0.0000
v  0.4695 -2.1933 0.0000
v  0.5283 -2.5433 0.0000
v  1.2630 -1.7162 0.0000
v  0.5188 -2.3661 0.0000
v  1.3640 -2.4394 -0.0000
v  1.3024 -1.8503 0.0000
v  1.3158 -1.8837 0.0000
v  1.2647 -1.6518 0.0000
v  1.3291 -1.9167 0.0000
v  1.3710 -4.1738 -0.0000
v  0.8489 -4.7291 0.0000
v  1.3877 -4.2661 -0.0000
v  1.3860 -4.2578 -0.0000
v  1.3984 -4.3084 -0.0000
v  1.3896 -4.2745 -0.0000
v  1.3827 -4.2411 -0.0000
v  1.3713 -3.4866 -0.0000
v  1.6707 -4.7291 -0.0000
v  1.6388 -4.5276 -0.0000
v  1.6146 -4.5070 -0.0000
v  1.6682 -4.5862 -0.0000
v  1.5853 -4.4915 -0.0000
v  1.4902 -4.4496 -0.0000
v  1.4638 -4.4289 -0.0000
v  1.5208 -4.4653 -0.0000
v  1.5532 -4.4784 -0.0000
v  1.3810 -3.4196 -0.0000
v  1.3865 -3.3864 -0.0000
v  1.3846 -2.3055 -0.0000
v  1.3737 -2.0460 0.0000
v  1.3922 -2.1758 -0.0000
v  1.3869 -2.1105 -0.0000
v  1.3813 -2.0782 0.0000
v  1.3923 -3.3535 -0.0000
v  1.4156 -2.9741 -0.0000
v  1.4299 -3.2203 -0.0000
v  1.4717 -3.1185 -0.0000
v  1.4606 -3.0276 -0.0000
v  1.4598 -3.1521 -0.0000
v  1.4388 -3.0010 -0.0000
v  1.4777 -3.0861 -0.0000
v  1.4748 -3.0556 -0.0000
v  -0.0546 -1.2518 0.0000
v  -0.1134 -1.2762 0.0000
v  0.1595 -1.3160 0.0000
v  0.1231 -1.0089 0.0000
v  0.1265 -1.1910 0.0000
v  0.0239 -0.7790 0.0000
v  0.7841 3.4353 0.0000
v  0.1145 -0.9182 0.0000
v  1.3921 0.4822 0.0000
v  0.0851 -0.8396 0.0000
v  0.0587 -0.8068 0.0000
v  0.2490 -1.4682 0.0000
v  0.2656 -1.5090 0.0000
v  1.2866 -1.5913 0.0000
v  0.1806 -1.3533 0.0000
v  0.2285 -1.4290 0.0000
v  0.1431 -1.2767 0.0000
v  1.3553 -1.0748 0.0000
v  1.1049 2.6528 0.0000
v  0.3683 4.6759 -0.0000
v  0.4582 4.6242 -0.0000
v  0.7703 3.8660 0.0000
v  0.6074 4.4771 -0.0000
v  0.2723 4.7097 -0.0000
v  -0.0663 4.7287 -0.0000
v  -0.0402 4.7273 -0.0000
v  0.0118 4.7242 -0.0000
v  0.0714 4.7278 -0.0000
v  0.7571 3.9721 0.0000
v  1.0663 3.4353 0.0000
v  1.4458 1.3310 0.0000
v  1.1836 2.5384 0.0000
v  0.7417 4.0782 0.0000
v  0.6613 4.3854 -0.0000
v  0.6366 4.4323 -0.0000
v  0.6987 4.2864 -0.0000
v  1.3687 -1.1417 0.0000
v  1.3204 -1.5324 0.0000
v  1.3553 -1.0425 0.0000
v  1.3244 -0.6966 0.0000
v  1.3594 -0.7540 0.0000
v  1.3420 -0.7251 0.0000
v  1.3631 -1.0112 0.0000
v  1.3760 -0.9804 0.0000
v  1.3550 -1.4729 0.0000
v  1.3094 -0.6095 0.0000
v  1.4011 0.0487 0.0000
v  1.3767 -1.1757 0.0000
v  1.3834 -1.2099 0.0000
v  1.3798 -1.4107 0.0000
v  1.3917 -1.2782 0.0000
v  1.4008 -0.8845 0.0000
v  1.3894 -0.9494 0.0000
v  1.3986 -0.9175 0.0000
v  1.4105 -0.0232 0.0000
v  1.3306 -0.5793 0.0000
v  1.3718 -0.5189 0.0000
v  1.4216 -0.0956 0.0000
v  1.4075 -0.4542 0.0000
v  1.2188 2.4787 0.0000
v  1.4332 1.6102 0.0000
v  1.2508 2.4172 0.0000
v  1.3924 0.1936 0.0000
v  1.4385 -0.2406 0.0000
v  1.4298 -0.3858 0.0000
v  1.4823 0.4822 0.0000
v  1.4591 1.0498 0.0000
v  1.4067 1.8868 0.0000
v  1.3828 2.0233 0.0000
v  1.3496 2.1582 0.0000
# 293 vertices

vn -0.0000 -0.0000 1.0000
vn -0.0000 0.0000 1.0000
vn 0.0000 -0.0000 1.0000
vn 0.0000 0.0000 1.0000
# 4 vertex normals

vt 0.0086 0.0195 0.0000
vt 0.0005 0.0137 0.0000
vt 0.0000 0.0000 0.0000
vt 0.0154 0.0216 0.0000
vt 0.0237 0.0231 0.0000
vt 0.0424 0.0257 0.0000
vt 0.0597 0.0289 0.0000
vt 0.0516 0.0271 0.0000
vt 0.2460 0.0000 0.0000
vt 0.0723 0.0341 0.0000
vt 0.0831 0.0434 0.0000
vt 0.0802 0.0401 0.0000
vt 0.0853 0.0466 0.0000
vt 0.0843 0.0450 0.0000
vt 0.2516 0.0540 0.0000
vt 0.0967 0.0926 0.0000
vt 0.0940 0.0661 0.0000
vt 0.2619 0.1079 0.0000
vt 0.0989 0.1932 0.0000
vt 0.0908 0.1193 0.0000
vt 0.0889 0.0531 0.0000
vt 0.2494 0.0360 0.0000
vt 0.0850 0.1323 0.0000
vt 0.0685 0.1515 0.0000
vt 0.0662 0.1696 0.0000
vt 0.0602 0.1581 0.0000
vt 0.0793 0.1749 0.0000
vt 0.0730 0.1722 0.0000
vt 0.0727 0.1482 0.0000
vt 0.0605 0.1670 0.0000
vt 0.0576 0.1642 0.0000
vt 0.0577 0.1612 0.0000
vt 0.0762 0.1450 0.0000
vt 0.0890 0.1806 0.0000
vt 0.0814 0.1386 0.0000
vt 0.0867 0.2648 0.0000
vt 0.0832 0.2585 0.0000
vt 0.0827 0.2458 0.0000
vt 0.0875 0.2331 0.0000
vt 0.0922 0.2710 0.0000
vt 0.0990 0.2773 0.0000
vt 0.0942 0.2200 0.0000
vt 0.2776 0.1435 0.0000
vt 0.2593 0.0989 0.0000
vt 0.2541 0.0720 0.0000
vt 0.2572 0.0900 0.0000
vt 0.3092 0.1459 0.0000
vt 0.3301 0.1649 0.0000
vt 0.3255 0.1455 0.0000
vt 0.3344 0.1453 0.0000
vt 0.3340 0.1627 0.0000
vt 0.3384 0.1453 0.0000
vt 0.3380 0.1602 0.0000
vt 0.3443 0.1553 0.0000
vt 0.3417 0.1456 0.0000
vt 0.3173 0.1458 0.0000
vt 0.3450 0.1462 0.0000
vt 0.3468 0.1525 0.0000
vt 0.3480 0.1500 0.0000
vt 0.3470 0.1472 0.0000
vt 0.3480 0.1485 0.0000
vt 0.3608 0.2111 0.0000
vt 0.3500 0.1754 0.0000
vt 0.3583 0.2234 0.0000
vt 0.3573 0.1809 0.0000
vt 0.3637 0.1987 0.0000
vt 0.3612 0.2354 0.0000
vt 0.3617 0.1867 0.0000
vt 0.3662 0.2412 0.0000
vt 0.3908 0.2825 0.0000
vt 0.3633 0.2383 0.0000
vt 0.1192 0.2968 0.0000
vt 0.3904 0.2703 0.0000
vt 0.3736 0.2468 0.0000
vt 0.3877 0.2582 0.0000
vt 0.3906 0.2641 0.0000
vt 0.3896 0.2611 0.0000
vt 0.3896 0.2765 0.0000
vt 0.1203 0.3032 0.0000
vt 0.0802 0.3756 0.0000
vt 0.0769 0.3852 0.0000
vt 0.0772 0.3787 0.0000
vt 0.0843 0.3725 0.0000
vt 0.0337 0.4289 0.0000
vt 0.0268 0.4409 0.0000
vt 0.0303 0.4328 0.0000
vt 0.0509 0.4182 0.0000
vt 0.0290 0.4572 0.0000
vt 0.0385 0.4252 0.0000
vt 0.0652 0.4115 0.0000
vt 0.0352 0.4734 0.0000
vt 0.0373 0.4816 0.0000
vt 0.0790 0.4046 0.0000
vt 0.0865 0.3270 0.0000
vt 0.0813 0.3468 0.0000
vt 0.0815 0.3334 0.0000
vt 0.0905 0.3240 0.0000
vt 0.0847 0.3535 0.0000
vt 0.0870 0.3568 0.0000
vt 0.0953 0.3210 0.0000
vt 0.0892 0.3601 0.0000
vt 0.0917 0.3976 0.0000
vt 0.0881 0.3695 0.0000
vt 0.0382 0.4897 0.0000
vt 0.0086 0.5223 0.0000
vt 0.0364 0.5223 0.0000
vt 0.0112 0.5873 0.0000
vt 0.0119 0.6035 0.0000
vt 0.0123 0.6197 0.0000
vt 0.0652 0.7310 0.0000
vt 0.0140 0.6522 0.0000
vt 0.0234 0.6845 0.0000
vt 0.0172 0.6684 0.0000
vt 0.0468 0.7160 0.0000
vt 0.0886 0.7453 0.0000
vt 0.0375 0.5060 0.0000
vt 0.0763 0.7383 0.0000
vt 0.1482 0.7711 0.0000
vt 0.1067 0.2837 0.0000
vt 0.1061 0.3151 0.0000
vt 0.1154 0.3093 0.0000
vt 0.3928 0.2853 0.0000
vt 0.1186 0.3063 0.0000
vt 0.0905 0.3665 0.0000
vt 0.4144 0.2986 0.0000
vt 0.4409 0.3276 0.0000
vt 0.4044 0.2934 0.0000
vt 0.4318 0.3094 0.0000
vt 0.4389 0.3215 0.0000
vt 0.4243 0.3040 0.0000
vt 0.4447 0.3338 0.0000
vt 0.3959 0.2881 0.0000
vt 0.4364 0.3153 0.0000
vt 0.4824 0.3975 0.0000
vt 0.2436 0.8402 0.0000
vt 0.1482 0.8402 0.0000
vt 0.2975 0.9639 0.0000
vt 0.2453 0.9036 0.0000
vt 0.2423 0.8910 0.0000
vt 0.2628 0.9413 0.0000
vt 0.2492 0.9163 0.0000
vt 0.2767 0.9531 0.0000
vt 0.4274 0.9891 0.0000
vt 0.4660 0.9901 0.0000
vt 0.3723 0.9836 0.0000
vt 0.3551 0.9806 0.0000
vt 0.3901 0.9860 0.0000
vt 0.4523 0.3390 0.0000
vt 0.6822 0.1453 0.0000
vt 0.6814 0.1512 0.0000
vt 0.6807 0.1471 0.0000
vt 0.6854 0.1438 0.0000
vt 0.6844 0.1559 0.0000
vt 0.6550 0.2071 0.0000
vt 0.6600 0.1811 0.0000
vt 0.6739 0.1731 0.0000
vt 0.6957 0.1414 0.0000
vt 0.6864 0.1605 0.0000
vt 0.7247 0.1392 0.0000
vt 0.6849 0.1649 0.0000
vt 0.6592 0.2206 0.0000
vt 0.7462 0.0698 0.0000
vt 0.9035 0.0954 0.0000
vt 0.7434 0.0872 0.0000
vt 0.7508 0.0349 0.0000
vt 0.9054 0.0682 0.0000
vt 0.7486 0.0523 0.0000
vt 0.7415 0.0959 0.0000
vt 0.7391 0.1046 0.0000
vt 0.9056 0.1855 0.0000
vt 0.9001 0.1988 0.0000
vt 0.8843 0.2920 0.0000
vt 0.6589 0.2251 0.0000
vt 0.6551 0.1851 0.0000
vt 0.6519 0.1982 0.0000
vt 0.6524 0.1894 0.0000
vt 0.6040 0.2845 0.0000
vt 0.5926 0.3020 0.0000
vt 0.5976 0.2932 0.0000
vt 0.6216 0.2677 0.0000
vt 0.8909 0.4072 0.0000
vt 0.6409 0.2510 0.0000
vt 0.6584 0.2161 0.0000
vt 0.8799 0.2987 0.0000
vt 0.6557 0.2338 0.0000
vt 0.9091 0.2265 0.0000
vt 0.8915 0.2853 0.0000
vt 0.8955 0.2819 0.0000
vt 0.8806 0.3051 0.0000
vt 0.8994 0.2786 0.0000
vt 0.9103 0.0548 0.0000
vt 0.7540 0.0000 0.0000
vt 0.9153 0.0457 0.0000
vt 0.9148 0.0465 0.0000
vt 0.9185 0.0415 0.0000
vt 0.9159 0.0448 0.0000
vt 0.9138 0.0481 0.0000
vt 0.9105 0.1226 0.0000
vt 1.0000 0.0000 0.0000
vt 0.9904 0.0199 0.0000
vt 0.9832 0.0219 0.0000
vt 0.9993 0.0141 0.0000
vt 0.9744 0.0234 0.0000
vt 0.9460 0.0276 0.0000
vt 0.9381 0.0296 0.0000
vt 0.9551 0.0260 0.0000
vt 0.9648 0.0247 0.0000
vt 0.9135 0.1293 0.0000
vt 0.9151 0.1325 0.0000
vt 0.9155 0.2398 0.0000
vt 0.9126 0.2657 0.0000
vt 0.9179 0.2527 0.0000
vt 0.9165 0.2593 0.0000
vt 0.9148 0.2625 0.0000
vt 0.9169 0.1358 0.0000
vt 0.9241 0.1734 0.0000
vt 0.9282 0.1490 0.0000
vt 0.9408 0.1591 0.0000
vt 0.9375 0.1681 0.0000
vt 0.9372 0.1557 0.0000
vt 0.9310 0.1707 0.0000
vt 0.9426 0.1623 0.0000
vt 0.9417 0.1653 0.0000
vt 0.4835 0.3453 0.0000
vt 0.4658 0.3429 0.0000
vt 0.5481 0.3389 0.0000
vt 0.5372 0.3698 0.0000
vt 0.5382 0.3515 0.0000
vt 0.5072 0.3931 0.0000
vt 0.7651 0.8402 0.0000
vt 0.5346 0.3790 0.0000
vt 0.9284 0.5223 0.0000
vt 0.5257 0.3870 0.0000
vt 0.5178 0.3903 0.0000
vt 0.5750 0.3236 0.0000
vt 0.5800 0.3195 0.0000
vt 0.8873 0.3112 0.0000
vt 0.5544 0.3351 0.0000
vt 0.5688 0.3275 0.0000
vt 0.5432 0.3428 0.0000
vt 0.9094 0.3632 0.0000
vt 0.8604 0.7532 0.0000
vt 0.6351 0.9838 0.0000
vt 0.6674 0.9776 0.0000
vt 0.7668 0.8892 0.0000
vt 0.7193 0.9602 0.0000
vt 0.6002 0.9878 0.0000
vt 0.4756 0.9901 0.0000
vt 0.4852 0.9899 0.0000
vt 0.5043 0.9895 0.0000
vt 0.5263 0.9899 0.0000
vt 0.7639 0.9014 0.0000
vt 0.8604 0.8402 0.0000
vt 0.9527 0.6111 0.0000
vt 0.8844 0.7407 0.0000
vt 0.7604 0.9136 0.0000
vt 0.7371 0.9494 0.0000
vt 0.7291 0.9549 0.0000
vt 0.7488 0.9378 0.0000
vt 0.9132 0.3564 0.0000
vt 0.8976 0.3171 0.0000
vt 0.9095 0.3665 0.0000
vt 0.9014 0.4015 0.0000
vt 0.9118 0.3957 0.0000
vt 0.9066 0.3986 0.0000
vt 0.9120 0.3696 0.0000
vt 0.9160 0.3727 0.0000
vt 0.9082 0.3231 0.0000
vt 0.8972 0.4103 0.0000
vt 0.9283 0.4776 0.0000
vt 0.9155 0.3530 0.0000
vt 0.9175 0.3496 0.0000
vt 0.9158 0.3293 0.0000
vt 0.9198 0.3427 0.0000
vt 0.9238 0.3824 0.0000
vt 0.9201 0.3759 0.0000
vt 0.9230 0.3791 0.0000
vt 0.9308 0.4702 0.0000
vt 0.9037 0.4134 0.0000
vt 0.9165 0.4195 0.0000
vt 0.9337 0.4628 0.0000
vt 0.9276 0.4261 0.0000
vt 0.8950 0.7342 0.0000
vt 0.9519 0.6407 0.0000
vt 0.9044 0.7275 0.0000
vt 0.9265 0.4925 0.0000
vt 0.9381 0.4479 0.0000
vt 0.9347 0.4331 0.0000
vt 0.9562 0.5223 0.0000
vt 0.9539 0.5815 0.0000
vt 0.9470 0.6702 0.0000
vt 0.9412 0.6849 0.0000
vt 0.9325 0.6994 0.0000
# 293 texture coords

g 1
usemtl default
s 1
f 1/1/1 2/2/1 3/3/1 
f 3/3/1 4/4/1 1/1/1 
f 4/4/1 3/3/1 5/5/1 
f 3/3/1 6/6/1 5/5/1 
f 3/3/1 7/7/1 8/8/1 
f 7/7/1 9/9/1 10/10/1 
f 8/8/1 6/6/1 3/3/1 
f 9/9/1 7/7/1 3/3/1 
f 9/9/1 11/11/1 12/12/1 
f 9/9/1 13/13/1 14/14/1 
f 14/14/1 11/11/1 9/9/1 
f 15/15/1 16/16/1 17/17/1 
f 18/18/1 19/19/1 20/20/1 
f 17/17/1 21/21/1 22/22/1 
f 19/19/1 23/23/1 20/20/1 
f 21/21/1 13/13/1 9/9/1 
f 12/12/1 10/10/1 9/9/1 
f 24/24/1 25/25/1 26/26/1 
f 27/27/1 28/28/1 29/29/1 
f 29/29/1 28/28/1 24/24/1 
f 30/30/1 31/31/1 32/32/1 
f 32/32/1 26/26/1 30/30/1 
f 30/30/1 26/26/1 25/25/1 
f 25/25/1 24/24/1 28/28/1 
f 27/27/1 29/29/1 33/33/1 
f 27/27/1 33/33/1 34/34/1 
f 35/35/1 34/34/1 33/33/1 
f 23/23/1 34/34/1 35/35/1 
f 34/34/1 23/23/1 19/19/1 
f 36/36/1 37/37/1 38/38/1 
f 38/38/1 39/39/1 40/40/1 
f 36/36/1 38/38/1 40/40/1 
f 41/41/1 39/39/1 42/42/1 
f 43/43/1 42/42/1 19/19/1 
f 44/44/1 20/20/1 16/16/1 
f 21/21/1 9/9/1 22/22/1 
f 16/16/1 15/15/1 45/45/1 
f 17/17/1 22/22/1 15/15/1 
f 16/16/1 46/46/1 44/44/1 
f 47/47/1 48/48/1 43/43/1 
f 19/19/1 18/18/1 43/43/1 
f 20/20/1 44/44/1 18/18/1 
f 16/16/1 45/45/1 46/46/1 
f 49/49/1 50/50/1 51/51/1 
f 52/52/1 53/53/1 50/50/1 
f 54/54/1 52/52/1 55/55/1 
f 48/48/1 56/56/1 49/49/1 
f 55/55/1 57/57/1 58/58/1 
f 59/59/1 60/60/1 61/61/1 
f 57/57/1 60/60/1 59/59/1 
f 48/48/1 47/47/1 56/56/1 
f 59/59/1 58/58/1 57/57/1 
f 53/53/1 51/51/1 50/50/1 
f 52/52/1 54/54/1 53/53/1 
f 51/51/1 48/48/1 49/49/1 
f 62/62/2 48/48/1 63/63/1 
f 48/48/1 62/62/2 64/64/2 
f 65/65/1 66/66/2 63/63/1 
f 63/63/1 66/66/2 62/62/2 
f 43/43/1 64/64/2 67/67/2 
f 55/55/1 58/58/1 54/54/1 
f 68/68/2 66/66/2 65/65/1 
f 69/69/2 70/70/2 71/71/2 
f 72/72/1 43/43/1 67/67/2 
f 73/73/2 74/74/2 75/75/2 
f 75/75/2 76/76/2 73/73/2 
f 77/77/2 76/76/2 75/75/2 
f 78/78/2 69/69/2 74/74/2 
f 67/67/2 71/71/2 79/79/1 
f 48/48/1 64/64/2 43/43/1 
f 42/42/1 43/43/1 72/72/1 
f 74/74/2 73/73/2 78/78/2 
f 80/80/3 81/81/3 82/82/3 
f 80/80/3 83/83/3 81/81/3 
f 84/84/3 85/85/3 86/86/3 
f 87/87/3 88/88/3 89/89/3 
f 88/88/3 84/84/3 89/89/3 
f 87/87/3 90/90/3 91/91/3 
f 92/92/3 90/90/3 93/93/3 
f 94/94/1 95/95/1 96/96/1 
f 95/95/1 94/94/1 97/97/1 
f 98/98/1 95/95/1 97/97/1 
f 99/99/1 100/100/1 101/101/1 
f 102/102/3 83/83/3 103/103/3 
f 100/100/1 99/99/1 98/98/1 
f 102/102/3 81/81/3 83/83/3 
f 102/102/3 104/104/3 93/93/3 
f 105/105/3 106/106/3 107/107/3 
f 88/88/3 85/85/3 84/84/3 
f 106/106/3 108/108/3 107/107/3 
f 109/109/3 110/110/3 111/111/3 
f 112/112/3 113/113/3 114/114/3 
f 113/113/3 111/111/3 114/114/3 
f 108/108/3 115/115/3 109/109/3 
f 91/91/3 88/88/3 87/87/3 
f 102/102/3 116/116/3 104/104/3 
f 92/92/3 93/93/3 104/104/3 
f 108/108/3 106/106/3 115/115/3 
f 114/114/3 111/111/3 110/110/3 
f 109/109/3 117/117/3 110/110/3 
f 117/117/3 109/109/3 115/115/3 
f 102/102/3 106/106/3 116/116/3 
f 118/118/3 115/115/3 106/106/3 
f 91/91/3 90/90/3 92/92/3 
f 98/98/1 97/97/1 100/100/1 
f 119/119/1 41/41/1 42/42/1 
f 72/72/1 119/119/1 42/42/1 
f 41/41/1 40/40/1 39/39/1 
f 101/101/1 120/120/1 121/121/1 
f 122/122/2 123/123/1 79/79/1 
f 123/123/1 124/124/3 121/121/1 
f 124/124/3 101/101/1 121/121/1 
f 72/72/1 67/67/2 79/79/1 
f 100/100/1 120/120/1 101/101/1 
f 71/71/2 70/70/2 79/79/1 
f 102/102/3 123/123/1 122/122/2 
f 79/79/1 70/70/2 122/122/2 
f 125/125/2 126/126/2 127/127/2 
f 128/128/2 129/129/2 130/130/2 
f 126/126/2 125/125/2 130/130/2 
f 131/131/2 132/132/2 127/127/2 
f 132/132/2 102/102/3 122/122/2 
f 69/69/2 78/78/2 70/70/2 
f 129/129/2 128/128/2 133/133/2 
f 103/103/3 124/124/3 102/102/3 
f 118/118/3 134/134/2 135/135/3 
f 135/135/3 136/136/3 118/118/3 
f 134/134/2 106/106/3 102/102/3 
f 106/106/3 134/134/2 118/118/3 
f 137/137/3 138/138/3 139/139/3 
f 140/140/3 141/141/3 142/142/3 
f 141/141/3 138/138/3 137/137/3 
f 135/135/3 137/137/3 139/139/3 
f 102/102/3 124/124/3 123/123/1 
f 132/132/2 131/131/2 102/102/3 
f 131/131/2 127/127/2 126/126/2 
f 143/143/3 135/135/3 144/144/3 
f 102/102/3 131/131/2 134/134/2 
f 135/135/3 145/145/3 146/146/3 
f 137/137/3 142/142/3 141/141/3 
f 146/146/3 137/137/3 135/135/3 
f 135/135/3 147/147/3 145/145/3 
f 135/135/3 143/143/3 147/147/3 
f 134/134/2 131/131/2 148/148/2 
f 130/130/2 129/129/2 126/126/2 
f 149/149/4 150/150/4 151/151/4 
f 150/150/4 149/149/4 152/152/4 
f 153/153/4 150/150/4 152/152/4 
f 154/154/4 155/155/4 156/156/4 
f 153/153/4 157/157/4 158/158/4 
f 159/159/4 160/160/4 158/158/4 
f 160/160/4 161/161/4 156/156/4 
f 157/157/4 153/153/4 152/152/4 
f 162/162/4 163/163/3 164/164/4 
f 165/165/4 166/166/3 167/167/4 
f 167/167/4 166/166/3 162/162/4 
f 158/158/4 157/157/4 159/159/4 
f 168/168/4 163/163/3 169/169/4 
f 169/169/4 170/170/3 159/159/4 
f 171/171/3 172/172/1 159/159/4 
f 163/163/3 168/168/4 164/164/4 
f 159/159/4 173/173/4 160/160/4 
f 174/174/4 175/175/4 176/176/4 
f 175/175/4 155/155/4 154/154/4 
f 174/174/4 155/155/4 175/175/4 
f 177/177/3 178/178/3 179/179/3 
f 180/180/3 181/181/1 178/178/3 
f 177/177/3 180/180/3 178/178/3 
f 180/180/3 182/182/4 181/181/1 
f 173/173/4 161/161/4 160/160/4 
f 183/183/4 156/156/4 161/161/4 
f 184/184/1 185/185/4 173/173/4 
f 159/159/4 184/184/1 173/173/4 
f 156/156/4 183/183/4 154/154/4 
f 186/186/3 187/187/1 172/172/1 
f 172/172/1 184/184/1 159/159/4 
f 187/187/1 186/186/3 188/188/1 
f 189/189/1 182/182/4 185/185/4 
f 190/190/1 188/188/1 186/186/3 
f 189/189/1 185/185/4 184/184/1 
f 191/191/3 165/165/4 192/192/4 
f 192/192/4 193/193/3 194/194/3 
f 192/192/4 195/195/3 196/196/3 
f 196/196/3 193/193/3 192/192/4 
f 162/162/4 166/166/3 163/163/3 
f 192/192/4 197/197/3 191/191/3 
f 191/191/3 166/166/3 165/165/4 
f 198/198/3 170/170/3 169/169/4 
f 192/192/4 194/194/3 197/197/3 
f 199/199/3 200/200/3 201/201/3 
f 200/200/3 199/199/3 202/202/3 
f 199/199/3 201/201/3 203/203/3 
f 199/199/3 204/204/3 205/205/3 
f 206/206/3 199/199/3 207/207/3 
f 203/203/3 207/207/3 199/199/3 
f 206/206/3 204/204/3 199/199/3 
f 192/192/4 199/199/3 205/205/3 
f 205/205/3 195/195/3 192/192/4 
f 171/171/3 159/159/4 170/170/3 
f 170/170/3 208/208/3 209/209/3 
f 170/170/3 198/198/3 208/208/3 
f 210/210/3 190/190/1 186/186/3 
f 211/211/1 190/190/1 210/210/3 
f 212/212/1 213/213/1 214/214/1 
f 214/214/1 211/211/1 212/212/1 
f 212/212/1 211/211/1 210/210/3 
f 209/209/3 215/215/3 170/170/3 
f 171/171/3 186/186/3 172/172/1 
f 216/216/3 215/215/3 217/217/3 
f 218/218/3 219/219/3 220/220/3 
f 221/221/3 217/217/3 220/220/3 
f 218/218/3 222/222/3 223/223/3 
f 221/221/3 220/220/3 219/219/3 
f 217/217/3 221/221/3 216/216/3 
f 218/218/3 223/223/3 219/219/3 
f 215/215/3 216/216/3 170/170/3 
f 163/163/3 198/198/3 169/169/4 
f 224/224/2 134/134/2 225/225/2 
f 226/226/1 227/227/1 228/228/2 
f 229/229/2 230/230/2 134/134/2 
f 231/231/1 232/232/3 233/233/2 
f 233/233/2 230/230/2 234/234/2 
f 234/234/2 230/230/2 229/229/2 
f 231/231/1 227/227/1 235/235/1 
f 134/134/2 230/230/2 135/135/3 
f 181/181/1 231/231/1 236/236/1 
f 236/236/1 178/178/3 181/181/1 
f 181/181/1 182/182/4 189/189/1 
f 189/189/1 237/237/1 181/181/1 
f 227/227/1 226/226/1 238/238/1 
f 235/235/1 227/227/1 239/239/1 
f 231/231/1 235/235/1 236/236/1 
f 239/239/1 227/227/1 238/238/1 
f 228/228/2 240/240/2 226/226/1 
f 181/181/1 237/237/1 241/241/1 
f 232/232/3 242/242/2 233/233/2 
f 243/243/4 230/230/2 244/244/4 
f 244/244/4 245/245/2 246/246/2 
f 247/247/4 230/230/2 243/243/4 
f 248/248/4 135/135/3 249/249/4 
f 250/250/4 249/249/4 135/135/3 
f 251/251/4 230/230/2 247/247/4 
f 251/251/4 250/250/4 230/230/2 
f 135/135/3 248/248/4 144/144/3 
f 245/245/2 252/252/2 246/246/2 
f 230/230/2 242/242/2 253/253/2 
f 242/242/2 254/254/3 255/255/4 
f 250/250/4 135/135/3 230/230/2 
f 256/256/2 257/257/2 258/258/2 
f 259/259/2 257/257/2 256/256/2 
f 256/256/2 258/258/2 246/246/2 
f 246/246/2 252/252/2 256/256/2 
f 230/230/2 245/245/2 244/244/4 
f 230/230/2 233/233/2 242/242/2 
f 231/231/1 181/181/1 232/232/3 
f 225/225/2 134/134/2 148/148/2 
f 260/260/1 241/241/1 261/261/1 
f 241/241/1 262/262/1 181/181/1 
f 263/263/1 181/181/1 262/262/1 
f 264/264/1 265/265/1 266/266/1 
f 263/263/1 266/266/1 265/265/1 
f 267/267/1 264/264/1 266/266/1 
f 263/263/1 262/262/1 266/266/1 
f 268/268/1 260/260/1 261/261/1 
f 181/181/1 269/269/1 270/270/1 
f 271/271/1 268/268/1 272/272/1 
f 268/268/1 271/271/1 260/260/1 
f 273/273/1 274/274/1 272/272/1 
f 275/275/1 276/276/1 277/277/1 
f 276/276/1 275/275/1 264/264/1 
f 267/267/1 276/276/1 264/264/1 
f 272/272/1 268/268/1 273/273/1 
f 278/278/1 279/279/1 280/280/1 
f 278/278/1 280/280/1 281/281/1 
f 282/282/1 281/281/1 280/280/1 
f 270/270/1 279/279/1 278/278/1 
f 283/283/4 284/284/3 285/285/4 
f 181/181/1 286/286/1 232/232/3 
f 242/242/2 232/232/3 254/254/3 
f 270/270/1 286/286/1 181/181/1 
f 284/284/3 255/255/4 254/254/3 
f 269/269/1 279/279/1 270/270/1 
f 281/281/1 282/282/1 287/287/1 
f 288/288/1 287/287/1 282/282/1 
f 289/289/3 290/290/3 232/232/3 
f 290/290/3 254/254/3 232/232/3 
f 291/291/4 292/292/4 293/293/4 
f 291/291/4 293/293/4 284/284/3 
f 284/284/3 293/293/4 285/285/4 
f 255/255/4 284/284/3 283/283/4 
f 237/237/1 261/261/1 241/241/1 
# 0 polygons - 291 triangles

