%YAML 1.1
%TAG !u! tag:unity3d.com,2011:
--- !u!21 &2100000
Material:
  serializedVersion: 6
  m_ObjectHideFlags: 0
  m_PrefabParentObject: {fileID: 0}
  m_PrefabInternal: {fileID: 0}
  m_Name: orangeScan 2
  m_Shader: {fileID: 4800000, guid: 54801e211c61e07409e5f0253345511b, type: 3}
  m_ShaderKeywords: DISTORTION_ON NOISE_OFF RIM_ON SCANLINES_ON_WORLD
  m_LightmapFlags: 5
  m_EnableInstancingVariants: 0
  m_DoubleSidedGI: 0
  m_CustomRenderQueue: 3000
  stringTagMap: {}
  disabledShaderPasses: []
  m_SavedProperties:
    serializedVersion: 3
    m_TexEnvs:
    - _DistortionTex:
        m_Texture: {fileID: 2800000, guid: 0035bb4b5e7772f44ae8d7ae69412d65, type: 3}
        m_Scale: {x: 1, y: 2}
        m_Offset: {x: -0.82, y: -3.24}
    - _MainTex:
        m_Texture: {fileID: 2800000, guid: 0035bb4b5e7772f44ae8d7ae69412d65, type: 3}
        m_Scale: {x: 1, y: 1}
        m_Offset: {x: 0, y: 0}
    m_Floats:
    - _NoiseDepth: 0.08
    - _NoiseFrequency: 0.1
    - _NoiseHeight: 0.08
    - _NoiseWidth: 0.08
    - _RimStrength: 1.15
    - _ScanLineDistance: 0.32
    - _ScanLineMovement: 0.2
    - _ScanLineSize: 0.1
    - _Strength: 1.47
    m_Colors:
    - _Color: {r: 1, g: 0.47586206, b: 0, a: 1}
    - _DistortionSettings: {r: 0.14, g: 1.53, b: 1, a: 0}
    - _NoiseColor: {r: 0.17647058, g: 0.16430019, b: 0, a: 1}
    - _NoiseFrequency: {r: 1, g: -0.5, b: 0.1, a: 0}
    - _NoiseSettings: {r: 10, g: 10, b: 10, a: 0}
    - _ScanLineColor: {r: 1, g: 0.22758621, b: 0, a: 0.247}
    - _ScanLineSettings: {r: 1, g: 0.03, b: 6.42, a: 0.54}
