%YAML 1.1
%TAG !u! tag:unity3d.com,2011:
--- !u!21 &2100000
Material:
  serializedVersion: 6
  m_ObjectHideFlags: 0
  m_PrefabParentObject: {fileID: 0}
  m_PrefabInternal: {fileID: 0}
  m_Name: orangeRim
  m_Shader: {fileID: 4800000, guid: 54801e211c61e07409e5f0253345511b, type: 3}
  m_ShaderKeywords: DISTORTION_OFF NOISE_OFF RIM_ON SCANLINES_OFF
  m_LightmapFlags: 5
  m_EnableInstancingVariants: 0
  m_DoubleSidedGI: 0
  m_CustomRenderQueue: 3000
  stringTagMap: {}
  disabledShaderPasses: []
  m_SavedProperties:
    serializedVersion: 3
    m_TexEnvs:
    - _DistortionTex:
        m_Texture: {fileID: 2800000, guid: 0035bb4b5e7772f44ae8d7ae69412d65, type: 3}
        m_Scale: {x: 1, y: 1}
        m_Offset: {x: -0.66, y: 0}
    - _MainTex:
        m_Texture: {fileID: 0}
        m_Scale: {x: 1, y: 1}
        m_Offset: {x: 0, y: 0}
    m_Floats:
    - _NoiseDepth: 0.08
    - _NoiseFrequency: 0.1
    - _NoiseHeight: 0.08
    - _NoiseWidth: 0.08
    - _RimStrength: 0
    - _ScanLineDistance: 0.2
    - _ScanLineMovement: 0.2
    - _ScanLineSize: 0.1
    - _Strength: 3.98
    m_Colors:
    - _Color: {r: 1, g: 0, b: 0, a: 1}
    - _DistortionSettings: {r: 0.91, g: 1.53, b: 0, a: 0.1}
    - _NoiseColor: {r: 0.07910751, g: 0.17647058, b: 0, a: 1}
    - _NoiseFrequency: {r: 1, g: -0.5, b: 0.1, a: 0}
    - _NoiseSettings: {r: 0.1, g: 0.1, b: 0.1, a: 0}
    - _ScanLineColor: {r: 1, g: 0.22758621, b: 0, a: 0.178}
    - _ScanLineSettings: {r: 0.33, g: 0.002, b: 0, a: 0}
